<?xml version="1.0" encoding="UTF-8" standalone="no"?>
<!-- Created with Inkscape (http://www.inkscape.org/) -->

<svg
   xmlns:dc="http://purl.org/dc/elements/1.1/"
   xmlns:cc="http://creativecommons.org/ns#"
   xmlns:rdf="http://www.w3.org/1999/02/22-rdf-syntax-ns#"
   xmlns:svg="http://www.w3.org/2000/svg"
   xmlns="http://www.w3.org/2000/svg"
   xmlns:sodipodi="http://sodipodi.sourceforge.net/DTD/sodipodi-0.dtd"
   xmlns:inkscape="http://www.inkscape.org/namespaces/inkscape"
   width="247.2623cm"
   height="96.708939cm"
   viewBox="0 0 2472.6229 967.08945"
   version="1.1"
   id="svg8"
   inkscape:version="0.92.3 (2405546, 2018-03-11)"
   sodipodi:docname="Oshwdem.svg"
   inkscape:export-filename="/home/oscar/proyectos/oshwdem/Oshwdem.png"
   inkscape:export-xdpi="159.03619"
   inkscape:export-ydpi="159.03619">
  <defs
     id="defs2" />
  <sodipodi:namedview
     id="base"
     pagecolor="#ffffff"
     bordercolor="#666666"
     borderopacity="1.0"
     inkscape:pageopacity="0.0"
     inkscape:pageshadow="2"
     inkscape:zoom="0.049023019"
     inkscape:cx="5903.0411"
     inkscape:cy="2964.3389"
     inkscape:document-units="mm"
     inkscape:current-layer="layer1"
     inkscape:document-rotation="0"
     showgrid="false"
     fit-margin-left="2"
     fit-margin-top="2"
     fit-margin-right="2"
     fit-margin-bottom="2"
     inkscape:window-width="2560"
     inkscape:window-height="1413"
     inkscape:window-x="0"
     inkscape:window-y="27"
     inkscape:window-maximized="1"
     units="cm" />
  <metadata
     id="metadata5">
    <rdf:RDF>
      <cc:Work
         rdf:about="">
        <dc:format>image/svg+xml</dc:format>
        <dc:type
           rdf:resource="http://purl.org/dc/dcmitype/StillImage" />
        <dc:title></dc:title>
      </cc:Work>
    </rdf:RDF>
  </metadata>
  <g
     inkscape:label="Capa 1"
     inkscape:groupmode="layer"
     id="layer1"
     transform="translate(12.911438,1.5413511)">
    <path
       style="stroke:#010202;stroke-width:0.14891063;stroke-miterlimit:10"
       inkscape:connector-curvature="0"
       id="path10"
       d="m 362.07315,940.84468 c -9.7215,-1.42131 -20.09929,-4.90635 -29.93746,-10.05039 -7.6067,-3.9751 -9.72586,-4.68021 -11.75315,-3.9043 -4.22521,1.61523 -13.93942,0.20144 -18.25723,-2.65736 -10.59731,-7.01376 -11.82681,-19.84622 -2.76601,-28.88154 8.09529,-8.06974 21.29013,-8.08579 30.14457,-0.0338 3.65787,3.32679 5.26948,7.19617 5.26948,12.66251 v 4.96253 l 7.03933,1.69105 c 30.93217,7.42217 51.51785,5.5575 62.76127,-5.68728 4.53658,-4.53596 7.81963,-11.04875 7.85025,-15.57951 0.0737,-10.10066 -6.18322,-23.90736 -27.43324,-60.53198 -28.68681,-49.44457 -39.72094,-74.72146 -46.28337,-106.0204 -1.72902,-8.2477 -1.71079,-36.43502 0.0415,-60.01643 1.71591,-23.11106 1.04063,-66.65247 -1.37462,-88.69299 -1.83914,-16.79949 -4.48555,-33.56032 -5.62316,-35.62845 -1.5861,-2.88413 -13.06504,28.70942 -17.92834,49.34909 -6.41731,27.23416 -7.86485,58.17287 -3.85112,82.35516 3.28814,19.80833 3.54192,23.57488 2.34816,34.91017 -2.13231,20.24225 -7.51847,38.07496 -25.52119,84.50058 -15.99732,41.24798 -16.34881,55.09909 -1.59484,62.80136 6.21895,3.24434 21.17128,3.75045 26.75505,0.90058 2.55599,-1.30454 4.61681,-3.29247 5.4197,-5.23084 1.68018,-4.05675 0.90061,-12.7128 -1.60577,-17.83346 -1.71955,-3.51355 -2.61579,-4.15455 -7.51555,-5.39425 -7.02185,-1.77789 -12.00766,-5.5502 -14.45497,-10.9393 -3.92697,-8.64734 -1.08146,-18.05453 7.01235,-23.18906 7.97277,-5.0573 17.00513,-4.92605 24.84592,0.35719 7.0933,4.78025 10.15465,15.24405 6.51793,22.27607 -1.47305,2.85061 -1.39941,3.50407 1.17699,10.42665 2.26503,6.08189 2.76673,9.18626 2.84988,17.60677 0.092,9.27736 -0.16777,10.76507 -2.8134,16.15344 -3.81028,7.76123 -10.65492,13.22038 -20.42672,16.29267 -6.04394,1.89885 -9.54866,2.29049 -20.09638,2.22924 -24.69205,-0.1456 -39.59331,-7.04375 -46.19585,-21.38863 -2.0477,-4.45129 -2.34742,-6.6944 -2.31826,-17.37704 0.0415,-15.38911 2.55672,-25.08728 16.31018,-62.88515 14.85242,-40.81483 18.66486,-55.1983 19.62892,-74.06739 0.49076,-9.59752 0.1765,-13.25396 -2.15198,-24.99104 -5.29355,-26.69088 -5.45251,-51.90505 -0.50752,-80.73042 1.68528,-9.8287 7.08821,-32.52625 9.62305,-40.43049 1.69839,-5.29574 -1.77424,2.09218 -6.9657,14.8196 -14.36237,35.20549 -26.39408,72.67817 -32.59699,101.5174 -3.0927,14.37332 -3.1226,14.81668 -3.92622,57.92275 -0.447,23.88915 -1.32868,47.11611 -1.96019,51.61194 -6.4567,45.9026 -19.62529,76.78593 -41.62645,97.60937 -10.10361,9.56619 -22.84633,16.48084 -34.95608,18.97108 -5.7041,1.1712 -8.04132,2.17325 -9.55085,4.09261 -7.17936,9.12859 -24.91519,8.81208 -32.82087,-0.58489 -10.25164,-12.18267 -1.95218,-29.25997 14.80793,-30.47132 5.33075,-0.38677 6.90518,-0.025 12.59834,2.86157 l 6.507,3.30276 5.1302,-1.70357 c 25.38775,-8.43221 41.4507,-38.65478 46.1973,-86.92307 0.60749,-6.18328 1.48838,-32.16893 1.95729,-57.7448 0.92613,-50.66319 1.39868,-55.72484 7.74963,-83.29737 5.30885,-23.04689 15.30745,-55.10351 23.56317,-75.54992 1.34325,-3.32679 2.28324,-6.20728 2.08783,-6.40274 -0.57177,-0.57243 -24.26181,46.62538 -33.30218,66.3462 -18.05889,39.39934 -22.15649,52.77577 -34.36103,112.18907 -12.11703,58.978 -18.22953,75.97584 -31.48054,87.524 -11.34623,9.89002 -30.37206,12.7348 -49.932447,7.46747 -19.171707,-5.16154 -33.512199,-22.62826 -33.512199,-40.8185 0,-5.36419 -0.307,-6.12988 -4.041447,-10.05327 -11.127455,-11.69918 -3.421588,-29.79085 13.429678,-31.52787 4.734212,-0.49012 6.65941,-0.14986 11.368828,2.00533 7.796303,3.56965 11.44979,9.06009 11.40385,17.13789 -0.04487,7.77294 -3.487956,13.11318 -10.602405,16.45086 -6.190517,2.90611 -6.412938,4.26319 -2.109689,12.87552 6.680563,13.36985 21.663511,19.02801 37.789901,14.27199 12.20674,-3.59957 21.15888,-18.4549 27.53754,-45.69494 1.11719,-4.77869 4.09758,-20.9037 6.62075,-35.83266 10.29321,-60.91259 21.98001,-106.01676 37.78773,-145.8624 4.07717,-10.27133 7.09476,-18.31995 6.70754,-17.88385 -0.38725,0.43463 -3.1525,4.47095 -6.14603,8.96891 -18.6007,27.94298 -31.05903,39.21776 -59.22444,53.60055 -13.36331,6.82348 -25.48983,11.79325 -47.525246,19.47725 -17.700097,6.17446 -27.257501,10.87294 -35.414043,17.41641 -7.433139,5.96299 -12.273098,11.79619 -15.87627,19.13599 -2.511499,5.11341 -3.614109,7.15603 -3.608275,15.18205 0.0059,7.55051 1.154385,9.84175 3.02853,13.35746 6.424601,12.0609 19.367869,13.64181 29.203842,3.5645 l 3.794967,-3.88318 -1.80706,-3.51571 c -1.058129,-2.05859 -1.785178,-5.65376 -1.756738,-8.6838 0.15972,-16.33201 21.991671,-24.75833 34.864929,-13.45514 8.442404,7.41196 8.768384,19.96359 0.71244,27.52805 -2.778404,2.60842 -10.187469,5.91633 -13.252463,5.91633 -0.760602,0 -4.308348,2.92357 -7.883804,6.49824 -4.191666,4.19096 -9.000272,7.7292 -13.54635,9.96582 -6.442097,3.16847 -8.060283,4.06255 -16.484448,4.04935 -8.117893,-0.0169 -9.690134,-0.96759 -14.882319,-3.58488 -16.282454,-8.2017 -26.3007414,-28.91798 -23.2430417,-48.05619 1.3359668,-8.36723 5.8798567,-20.52077 10.6002217,-28.36007 5.186349,-8.61524 10.606785,-14.67522 18.535805,-20.72427 11.750234,-8.96525 16.133689,-11.07786 53.146226,-25.61014 34.943687,-13.71627 51.958297,-26.49691 73.217067,-54.9985 5.38836,-7.22384 14.80503,-21.46442 20.92626,-31.64606 10.61407,-17.65782 33.41519,-61.70531 41.7278,-80.61158 l 3.90443,-8.87441 -6.80744,-6.70754 c -3.7432,-3.6885 -7.03935,-6.70682 -7.32521,-6.70682 -0.2844,0 -3.79861,2.30294 -7.80798,5.12 l -7.2902,5.11853 -8.2579,-7.88381 c -4.54315,-4.3346 -13.42238,-12.9068 -19.73321,-19.04774 l -11.47458,-11.16465 1.85444,-2.68068 c 1.02167,-1.47233 7.43388,-10.56668 14.25081,-20.20869 l 12.39487,-17.5309 -7.80723,-19.26284 c -4.29522,-10.59513 -7.96403,-19.46049 -8.1529,-19.69895 -0.18885,-0.2414 -10.93713,-2.36785 -23.88259,-4.72766 -12.9469,-2.35908 -23.68787,-4.46368 -23.86725,-4.67442 -0.18014,-0.21001 -0.63298,-12.42187 -1.00417,-27.13572 -0.63228,-25.06178 -0.56152,-26.78424 1.13687,-27.29251 0.99688,-0.29896 12.39051,-2.44586 25.3192,-4.77506 12.92867,-2.32773 23.8505,-4.55482 24.26981,-4.94716 0.41788,-0.39375 3.91164,-8.79681 7.76128,-18.67289 l 7.00071,-17.95826 -14.79262,-20.698 -14.79117,-20.69873 19.40652,-19.40724 19.40798,-19.4065 21.00501,14.41706 c 11.55333,7.92973 21.56724,14.41997 22.25127,14.41997 0.68476,0 8.89453,-3.23928 18.24337,-7.19759 l 16.99711,-7.19759 5.13458,-25.76403 5.13384,-25.76256 h 26.48378 26.48378 l 5.023,25.73922 5.02519,25.73924 17.89409,7.18301 17.89406,7.18373 21.74008,-14.76491 21.73936,-14.76563 18.99375,19.41088 18.99377,19.41017 -11.53729,17.62133 c -6.34584,9.69231 -12.78066,19.49549 -14.29966,21.78529 l -2.76455,4.16396 7.552,17.81021 7.55128,17.81022 24.78174,4.29594 c 13.62875,2.36201 24.93341,4.44835 25.12084,4.6365 0.23699,0.237 0.94872,41.4507 0.94872,54.96131 0,0.007 -10.76355,1.82601 -23.92196,4.04289 -13.15692,2.21544 -24.23771,4.39367 -24.6264,4.84069 -0.38792,0.44633 -4.28939,9.14977 -8.66994,19.34016 l -7.96911,18.53071 13.9518,20.63965 13.95253,20.63893 -18.58902,19.33286 -18.58832,19.33286 -4.61827,-2.70256 -4.61535,-2.70692 -2.61214,3.47408 c -1.4366,1.91061 -4.60661,5.63775 -7.04591,8.28343 l -4.43524,4.81005 16.0841,22.79238 c 60.20455,85.31587 96.61253,126.084 129.74041,145.27758 10.36396,6.00456 23.05126,11.36301 33.63835,14.2085 11.89609,3.19625 33.52313,3.17512 44.84311,-0.0449 9.84473,-2.80174 19.30077,-7.01892 29.49846,-13.15766 7.70295,-4.63505 7.80213,-4.75099 6.7739,-7.70223 -4.02613,-11.54604 6.69588,-24.31575 20.41358,-24.31575 16.09428,0 26.07831,16.58655 17.50828,29.09373 -4.02905,5.88058 -8.51236,8.14122 -16.98837,8.57002 l -7.58186,0.38216 -6.81764,6.81548 c -16.92273,16.92053 -49.32355,25.519 -85.31078,22.64652 -24.32305,-1.94197 -50.56984,-7.55054 -61.7498,-13.19413 -20.37275,-10.28446 -47.87674,-39.43434 -75.8314,-80.37529 -4.5468,-6.65431 -8.26593,-11.78377 -8.26593,-11.39801 0,1.18865 9.88994,20.48798 19.1192,37.31153 21.91218,39.94262 39.07483,61.87594 54.51939,69.67078 7.5819,3.82633 21.48338,7.23624 43.64715,10.70014 52.42865,8.19742 71.80235,14.34341 85.44933,27.11096 4.56432,4.26894 7.36022,7.96619 9.43053,12.478 2.63765,5.73762 2.94175,7.48201 2.9053,16.63246 -0.0338,8.65972 -0.46672,11.30976 -2.84404,17.3742 -10.63378,27.13566 -33.4699,41.34997 -58.10141,36.16143 -16.88992,-3.55503 -30.68419,-16.83743 -34.48864,-33.21099 -1.12522,-4.84503 -1.50442,-5.31106 -5.25198,-6.43414 -5.01061,-1.50213 -11.0137,-6.65933 -12.84264,-11.03258 -3.09853,-7.41785 -1.10407,-14.93263 5.55681,-20.94303 4.68973,-4.23029 8.86463,-5.38106 17.06274,-4.7014 15.7027,1.3017 23.28533,18.51175 13.2984,30.18243 l -3.55285,4.14797 4.02978,5.98044 c 5.98049,8.87557 9.85129,11.09099 19.38535,11.09099 9.27885,0 14.92244,-2.448 22.0347,-9.56179 6.41512,-6.41438 9.17019,-12.45613 9.19352,-20.15251 0.0203,-7.34637 -3.02342,-12.86449 -9.81775,-17.78546 -9.23071,-6.68776 -17.78249,-8.57287 -58.10213,-12.81555 -35.95076,-3.78334 -46.62025,-6.36334 -65.41567,-15.815 -14.53083,-7.30703 -26.33503,-20.15768 -45.67444,-49.71521 -5.5641,-8.50802 -14.45572,-23.08772 -19.75656,-32.40302 -5.3023,-9.31529 -9.77472,-16.79948 -9.94172,-16.63467 -0.16843,0.16844 0.41273,2.32919 1.28857,4.80715 2.84331,8.05007 7.4572,27.74828 9.1957,39.25421 2.28033,15.10619 2.27013,35.57303 -0.0289,53.14404 -2.6989,20.62072 -2.52317,46.65964 0.40621,60.6334 3.81538,18.19226 10.19768,30.27428 19.88636,37.63385 14.54977,11.05376 36.22495,7.0815 44.2918,-8.11795 2.78496,-5.24324 2.32482,-13.52153 -1.09605,-19.76236 -2.72808,-4.97566 -3.11896,-5.26956 -7.63368,-5.70486 -13.91899,-1.34327 -22.64944,-13.52668 -18.00638,-25.13028 5.75954,-14.39525 26.42473,-17.40262 36.58741,-5.3271 4.18071,4.96904 4.86547,13.45154 1.69401,21.0116 -1.17335,2.801 -1.05084,3.51848 1.23388,7.15596 7.99684,12.73101 11.06694,29.46704 7.41854,40.4494 -4.84651,14.59208 -27.86423,27.46976 -49.10331,27.46976 -31.17279,0 -57.63397,-28.52055 -66.37901,-71.54275 -2.81048,-13.83074 -3.05479,-35.24846 -0.59648,-52.4221 4.9756,-34.76211 0.73656,-67.58734 -13.80012,-106.8846 -4.02541,-10.88242 -17.56374,-39.33734 -20.24222,-42.54672 -1.65756,-1.99011 -1.68966,-1.96021 -1.14783,1.02092 1.42493,7.83861 4.62264,36.25705 5.63628,50.07978 0.62864,8.5773 0.99688,33.11694 0.83501,55.70294 l -0.2888,40.36995 2.77768,13.84244 c 7.87797,39.26073 21.32441,82.93565 41.21003,133.84316 18.87491,48.32156 19.32339,49.77414 19.35328,62.87276 0.0236,10.68988 -0.14509,11.60732 -3.33408,18.08802 -2.10604,4.28357 -5.14114,8.39648 -8.14123,11.03774 -13.49165,11.87502 -41.38579,18.51908 -63.91271,15.22444 h -0.007 z"
       stroke-miterlimit="10" />
    <path
       id="Ultima_pata"
       stroke-miterlimit="10"
       d="m 419.22437,513.82337 c 0.29311,-0.31429 1.13832,0.23047 2.45753,1.958 1.06687,1.39722 5.67786,8.66629 10.24726,16.15045 36.38321,59.60364 72.44336,101.70701 98.32186,114.78665 12.27749,6.20509 40.61207,11.97264 63.17036,12.85648 38.95232,1.52411 64.91906,-6.42021 83.89023,-25.67069 2.81192,-2.85277 5.02883,-4.37908 5.42697,-3.73515 1.05743,1.71006 8.8267,1.23168 13.34798,-0.82476 12.4562,-5.65891 16.20881,-18.3112 8.02968,-27.07739 -8.39864,-9.00318 -22.47224,-8.72753 -30.66451,0.60384 -4.29303,4.88956 -5.11415,9.77474 -2.59755,15.46134 l 1.9675,4.4469 -8.82015,5.16375 c -17.1911,10.06641 -29.97538,14.90127 -44.22033,16.72873 -27.82924,3.56818 -61.47342,-8.98931 -91.41379,-34.11599 -27.4296,-23.02135 -71.49461,-77.23226 -117.44763,-144.49511 l -4.9807,-7.28948 -5.68953,3.84747 c -6.63389,4.48628 -12.51739,7.55492 -18.84792,9.59314"
       inkscape:connector-curvature="0"
       style="fill:#13738d;stroke:#010202;stroke-width:0.14905655;stroke-miterlimit:10" />
    <path
       stroke-miterlimit="10"
       d="m 381.49206,472.18381 c -6.3451,2.04185 -13.14162,3.04821 -21.59131,3.40553 -10.20278,0.42736 -13.78335,0.15169 -21.31057,-1.65099 -13.33778,-3.18824 -25.54816,-9.88047 -35.88731,-19.66757 l -8.47011,-8.01726 -2.61652,2.06083 c -4.7736,3.75337 -15.41904,8.04787 -23.03667,9.29342 -9.62085,1.57151 -20.54703,0.0161 -29.5918,-4.21426 l -6.44356,-3.01541 -4.75316,10.44999 c -27.16929,59.72834 -56.65023,108.68654 -79.67451,132.31534 -14.97929,15.37238 -30.80816,24.70956 -63.780719,37.61708 -10.892644,4.26459 -23.944565,9.78931 -29.0033,12.27749 -21.664969,10.65783 -34.516352,24.93852 -42.030433,46.70705 -6.3844902,18.49131 -3.270639,35.41185 8.883592,48.26179 11.10996,11.74879 26.240942,14.3813 40.073155,6.97294 2.936644,-1.57226 8.421248,-5.96514 12.187781,-9.75795 4.79109,-4.82832 7.612523,-6.90078 9.38822,-6.90078 3.933518,0 7.980069,-1.86832 11.593453,-5.35554 6.439901,-6.20874 6.827131,-14.25148 1.007068,-20.88103 -3.964144,-4.51546 -8.354163,-6.46907 -14.536651,-6.46907 -13.09203,0 -21.645283,12.59035 -15.961586,23.49176 1.193762,2.29116 2.171676,4.38272 2.171676,4.64372 0,0.26074 -1.694027,2.34965 -3.764334,4.64095 -10.646895,11.78446 -25.327942,11.39938 -33.109652,-0.87223 -12.794503,-20.17585 0.50244,-47.80818 30.230616,-62.81957 2.809756,-1.41837 13.003059,-5.36355 22.650166,-8.76764 43.695298,-15.41248 65.177948,-27.04893 83.214218,-45.0721 7.94871,-7.9436 12.67856,-14.12535 25.14125,-32.86242 8.44096,-12.69314 18.02606,-27.86934 21.30035,-33.7266 5.05436,-9.04256 16.36267,-28.05966 17.53457,-29.48823 0.19908,-0.24429 0.80216,-0.007 1.33887,0.53231 0.62128,0.62061 -2.77183,7.29896 -9.31311,18.32798 -18.02971,30.40635 -28.31783,52.98943 -39.8099,87.39932 -11.60438,34.73948 -20.53611,72.69346 -29.57867,125.67561 -7.27488,42.61825 -12.52759,58.67753 -23.00824,70.33446 -3.92839,4.3696 -5.86453,5.61296 -11.40238,7.32518 -13.54051,4.18224 -25.498575,1.98935 -34.622817,-6.35026 -5.669104,-5.18124 -9.065173,-11.05662 -9.957029,-17.229 -0.66657,-4.60582 -0.278563,-5.15058 5.711395,-8.0129 12.810552,-6.12264 13.463954,-21.46443 1.209812,-28.40596 -4.452007,-2.52103 -11.682405,-3.06646 -16.511432,-1.24627 -4.389294,1.65389 -9.440006,7.08598 -10.600951,11.39946 -1.569322,5.82731 0.2596,11.18285 5.290632,15.48969 3.615565,3.09422 4.076446,3.95182 3.506909,6.54494 -1.031146,4.69781 2.084163,17.31802 5.807664,23.51795 8.459903,14.0868 23.297729,21.0816 44.732977,21.08748 9.82068,0.007 12.71211,-0.37587 17.57978,-2.30951 11.78451,-4.68021 21.05824,-16.30215 27.30491,-34.21446 4.41919,-12.67564 6.45231,-21.07211 14.47832,-59.81733 12.72886,-61.43548 16.15556,-72.447 35.60218,-114.37606 12.17829,-26.25626 50.51659,-100.99088 53.3103,-103.91951 0.50026,-0.52504 1.20763,-0.65489 1.57151,-0.29312 0.36466,0.36464 -1.87852,6.31228 -4.98508,13.22038 -19.77989,43.98843 -35.2908,91.66901 -42.28421,129.98907 -2.44658,13.39684 -2.69088,17.58781 -3.49013,59.60512 -0.9101,47.87895 -1.87123,63.36424 -5.06311,81.57344 -7.07508,40.34589 -21.93769,62.61533 -47.04686,70.48094 l -5.65818,1.77423 -3.93642,-2.67333 c -10.25822,-6.96062 -21.35798,-5.18205 -27.92768,4.47024 -5.42408,7.96612 -1.15584,18.64152 9.17893,22.95932 7.63586,3.18898 16.61353,0.72366 21.7131,-5.9637 1.54306,-2.02441 3.22177,-3.42163 3.7286,-3.10803 1.70933,1.05817 12.59031,-1.80131 20.24951,-5.32053 26.21616,-12.03972 45.60589,-40.25763 55.23915,-80.38328 6.17301,-25.71591 8.41614,-51.75421 7.98516,-92.72135 -0.25596,-24.51411 -0.0661,-28.21576 2.00178,-39.02524 7.49802,-39.17328 27.02414,-96.40105 48.32012,-141.61973 3.37052,-7.16111 5.47512,-10.47769 6.64629,-10.47769 1.20761,0 1.51243,0.5236 1.03187,1.77715 -7.37699,19.22275 -16.4305,51.40918 -19.4634,69.19458 -4.9807,29.21334 -4.312,62.08963 1.68088,82.50177 2.15347,7.3325 1.5883,29.1921 -1.07853,41.73723 -2.15271,10.11901 -9.84036,33.80617 -23.05637,71.03233 -9.64199,27.15828 -12.84044,44.83361 -10.26841,56.7238 3.70599,17.1255 21.94208,26.44883 49.54087,25.32291 17.22973,-0.70172 26.75725,-5.18049 33.25769,-15.63346 2.9082,-4.67662 3.06499,-5.48462 3.03946,-15.74061 -0.0186,-8.91714 -0.44775,-11.88803 -2.4393,-16.94383 -2.83164,-7.18595 -2.9155,-8.79612 -0.76933,-14.43966 5.16812,-13.58725 -11.75898,-25.67807 -25.92372,-18.52204 -5.90829,2.98558 -9.16727,7.87149 -9.16727,13.74327 0,8.56639 6.06728,15.22721 15.01431,16.48377 4.74444,0.66699 5.01498,0.89179 7.81163,6.4807 9.43853,18.8749 0.55855,31.08383 -21.14285,29.06524 -19.09367,-1.77416 -27.20427,-12.2293 -24.18521,-31.17269 1.6539,-10.36614 5.63847,-22.58968 16.35901,-50.1863 15.55906,-40.05125 20.14816,-56.71222 21.10929,-76.65178 0.45945,-9.54575 0.14144,-14.0583 -1.70205,-24.01895 -4.78671,-25.86902 -3.77599,-58.32674 2.71933,-87.38401 4.91727,-21.99823 18.13255,-57.23653 21.46589,-57.23653 0.76281,0 1.38775,0.21661 1.38775,0.48348 0,0.26621 1.11428,6.83954 2.47649,14.60958 4.66204,26.57566 6.12781,46.07334 6.12636,81.49103 0,22.84633 -0.52946,38.40538 -1.75237,51.61339 -1.95947,21.14867 -1.44391,31.83124 2.39044,49.53202 5.32637,24.58417 19.96948,57.01052 45.01667,99.68705 16.62155,28.32074 24.00581,43.38833 26.03675,53.13166 1.37901,6.61345 1.37901,7.9764 -0.0106,12.74272 -2.84842,9.80026 -10.90942,17.50835 -22.03179,21.06406 -12.34163,3.94525 -26.66098,2.98476 -58.06785,-3.89781 -2.12721,-0.46806 -2.2993,-0.91588 -1.70132,-4.45338 2.22417,-13.16712 -13.53832,-23.66457 -25.99301,-17.30922 -4.5118,2.30146 -9.00099,7.23618 -9.92276,10.90872 -1.66193,6.62948 2.5662,14.98805 9.16362,18.12086 3.98019,1.88937 13.05922,2.22997 16.09577,0.6035 1.55109,-0.82952 2.63183,-0.62808 4.78673,0.89185 4.08665,2.88195 13.17443,7.32228 19.62456,9.58738 13.98244,4.91201 28.9435,6.03365 44.60319,3.33975 h 0.002 c 21.67955,-3.72557 33.8936,-10.66067 40.83085,-23.18611 2.85496,-5.15125 2.99278,-5.97677 2.9505,-17.66869 -0.0508,-14.0962 0.54696,-12.00763 -14.48633,-50.59168 -21.2515,-54.54634 -30.60472,-82.52363 -39.12515,-117.02394 -9.56252,-38.71679 -9.49981,-38.10713 -9.62523,-95.05052 -0.0992,-45.61172 -0.31649,-51.74025 -2.44077,-68.67537 -1.27982,-10.22612 -2.93519,-22.07918 -3.67755,-26.34523 -2.48233,-14.28069 2.22709,-10.45875 13.03953,10.58564 15.9521,31.04517 26.35688,65.50902 29.34968,97.20977 1.29732,13.72867 0.80361,25.96311 -1.71297,42.41621 -8.38335,54.83659 14.24642,107.78807 50.62669,118.45838 7.05321,2.07099 20.33703,2.0944 28.21573,0.0508 14.30549,-3.70746 27.87808,-13.26844 31.6468,-22.28921 4.16176,-9.95918 2.37367,-22.0456 -5.46345,-36.93517 l -4.88008,-9.26714 1.84424,-3.03439 c 5.78943,-9.52821 1.01802,-20.68277 -10.2932,-24.07441 -11.9311,-3.57324 -24.63736,5.73472 -23.35462,17.11163 0.94218,8.36439 8.29509,14.63805 17.36463,14.82101 3.84456,0.0762 4.72476,0.55273 7.01967,3.79498 3.54191,5.00477 4.98872,9.63321 4.96246,15.86969 -0.0745,16.97747 -19.08418,29.50434 -37.58352,24.76645 -15.93315,-4.08374 -26.39627,-16.99052 -32.65024,-40.28031 -2.50274,-9.32258 -2.67193,-11.41399 -2.74339,-33.95406 -0.0517,-16.48809 0.40401,-27.21959 1.45484,-34.23705 2.03603,-13.5624 1.83768,-39.76616 -0.40105,-53.14696 -4.47533,-26.75215 -13.29038,-52.61024 -27.77015,-81.46259 -5.27751,-10.51563 -9.19571,-19.36422 -8.70785,-19.66612 1.212,-0.74748 2.88268,1.99301 10.59367,17.37704 22.55098,44.99041 49.27833,90.0399 66.71809,112.45306 10.71325,13.76877 17.91959,20.20285 28.93038,25.8355 17.66072,9.03378 29.71795,11.88513 65.54912,15.49778 38.17131,3.84819 46.48901,5.67346 56.69689,12.43649 9.37073,6.20509 13.62803,15.58236 11.70503,25.77636 -2.49911,13.24523 -16.73678,26.23446 -30.54783,27.87149 -10.54115,1.24851 -19.39048,-3.83797 -26.64786,-15.31181 l -3.78986,-5.99579 4.11509,-3.84088 c 3.67318,-3.42527 4.16469,-4.45934 4.59567,-9.63476 0.41129,-4.96829 0.11011,-6.3611 -2.11041,-9.7149 -7.03862,-10.63519 -24.69058,-10.47768 -31.34053,0.27934 -2.74704,4.44392 -2.79372,12.00032 -0.10202,16.35536 2.16655,3.50839 7.89108,7.13051 12.95711,8.20032 2.90164,0.61454 3.25679,1.12152 3.84236,5.4773 1.89239,14.05606 13.2109,26.81922 28.30542,31.92099 5.35261,1.80849 8.27542,2.14245 15.8967,1.81356 8.27467,-0.35468 10.20715,-0.83289 17.00949,-4.19312 12.34601,-6.10227 22.19076,-18.14049 27.32824,-33.42753 3.16345,-9.40576 2.57057,-22.79016 -1.33232,-30.1504 -10.07371,-18.99891 -29.05726,-26.90824 -87.09304,-36.29063 -47.82131,-7.7292 -56.12371,-11.37467 -72.9086,-32.0187 -15.43436,-18.97918 -29.61222,-43.2417 -55.42729,-94.84631 -7.90496,-15.80042 -15.52551,-30.55512 -16.93512,-32.78879 -1.61382,-2.55671 -2.14907,-4.38126 -1.77133,-4.78673"
       id="path14"
       inkscape:connector-curvature="0"
       style="fill:#34aacd;stroke:#010202;stroke-width:0.14905655;stroke-miterlimit:10" />
    <path
       style="fill:#010202;stroke-width:0.72923917"
       inkscape:connector-curvature="0"
       id="path16"
       d="m 291.85398,500.49141 c -6.35532,-1.49931 -10.84454,-8.07706 -9.67774,-14.17713 0.57024,-2.99061 2.26721,-1.95 2.26721,1.38992 0,8.37531 8.71075,13.19776 16.53477,9.1505 3.01394,-1.55766 6.15551,-6.22699 6.15551,-9.1505 0,-1.63497 1.84716,-3.25022 2.71714,-2.38096 0.28661,0.2866 -0.0576,2.44369 -0.76136,4.79474 -1.29148,4.30835 -6.98684,9.54356 -9.5173,10.20498 -1.23387,0.32376 -1.51464,0.48348 -2.92716,0.56736 -0.7854,0.0457 -2.91113,0.0457 -4.79257,-0.3996 h 9.4e-4 z" />
    <path
       style="fill:#ffffff;stroke:#010202;stroke-width:0.14891063;stroke-miterlimit:10"
       inkscape:connector-curvature="0"
       id="path18"
       d="M 352.14675,456.52703 V 440.2125 l -4.34336,-1.14636 c -16.70176,-4.40243 -27.9758,-21.65112 -25.24626,-38.62708 3.76288,-23.38889 28.62557,-36.05214 49.7611,-25.34179 6.08843,3.0854 13.03515,10.45437 15.84564,16.80532 2.52535,5.70774 3.47191,16.51799 1.94124,22.17032 -2.90748,10.73295 -12.51886,21.08523 -22.43287,24.16043 l -4.79255,1.48984 -0.28364,16.70103 -0.0407,16.55884 5.40001,-0.51853 c 3.10147,-0.36388 9.22342,-1.96968 13.60396,-3.56744 23.61642,-8.62034 41.26547,-27.89048 47.87017,-52.26894 2.44735,-9.0382 2.45245,-27.73371 0.0106,-36.79304 -5.83756,-21.63288 -21.0072,-39.98273 -41.00513,-49.60213 -10.25603,-4.93256 -19.52247,-6.92486 -32.19591,-6.92121 -13.27216,0.004 -20.8927,1.84498 -33.72732,8.14415 -8.21196,4.0327 -11.13475,6.19854 -18.94783,14.05317 -15.36579,15.44091 -21.95082,31.25738 -21.91801,52.63066 0.0365,22.20314 8.00195,40.29484 24.44337,55.51698 11.30613,10.46822 30.02715,18.94782 42.2288,19.12576 l 3.83286,0.0585 v -16.31382 z"
       stroke-miterlimit="10" />
    <path
       style="fill:#ffffff;stroke:#010202;stroke-width:0.14891063;stroke-miterlimit:10"
       inkscape:connector-curvature="0"
       id="path20"
       d="m 254.02979,439.1252 v -16.33788 l -3.81829,-1.5963 c -8.64295,-3.60973 -12.96004,-10.79785 -12.34093,-20.53903 0.3369,-5.29645 0.96115,-7.11737 3.52734,-10.30414 1.71444,-2.12866 4.91361,-4.92383 7.10862,-6.21314 8.55763,-5.01788 22.63924,-0.9954 26.90018,7.68401 2.13812,4.35575 3.14886,4.20042 3.16928,-0.48645 0.0517,-10.95098 6.92048,-29.3227 14.79115,-39.55684 l 3.89269,-5.06457 -4.40608,-3.79716 c -5.36062,-4.61462 -13.154,-8.53573 -21.07208,-10.59729 -16.44872,-4.28501 -33.3977,0.88019 -46.92437,14.29965 -19.98261,19.82363 -24.6016,51.22322 -11.47894,78.02495 2.26428,4.62264 5.79379,9.273 11.00494,14.50019 9.62231,9.65148 14.45206,12.32196 29.39198,16.25474 0.14077,0.038 0.25452,-7.28363 0.25452,-16.27079 z"
       stroke-miterlimit="10" />
    <path
       style="fill:#ffffff;stroke:#010202;stroke-width:0.14891063;stroke-miterlimit:10"
       inkscape:connector-curvature="0"
       id="path22"
       d="m 277.69505,452.43309 c 2.76019,-1.04865 7.2997,-3.37201 10.08976,-5.16229 l 5.07479,-3.25677 -1.90842,-2.70768 c -4.75391,-6.74109 -10.29978,-20.87301 -11.88952,-30.29697 l -0.6884,-4.08228 -1.94342,3.99403 c -2.63766,5.42409 -4.51618,7.32229 -9.75869,9.85933 l -4.46367,2.16 v 16.39476 16.39403 l 5.23521,-0.69492 c 2.87978,-0.38208 7.49293,-1.55255 10.25236,-2.6012 z"
       stroke-miterlimit="10" />
    <path
       style="stroke:#000000;stroke-width:0.59556961;stroke-miterlimit:10"
       inkscape:connector-curvature="0"
       id="path24"
       d="m 217.78004,79.096146 c 0.38723,-1.826747 2.02146,-7.460852 3.63234,-12.520315 9.02653,-28.347715 29.14259,-44.738827 58.19111,-47.419511 16.88407,-1.558378 28.58982,1.240442 48.52504,11.602202 15.36068,7.983707 21.68027,10.344982 31.27487,11.679488 19.87177,2.763821 35.53146,-4.382727 40.5479,-18.505899 l 1.73267,-4.879343 h 10.62137 10.62282 l -0.68763,4.299599 c -0.37852,2.366379 -1.84207,7.770771 -3.25314,12.009113 -10.08976,30.310829 -33.51656,47.057077 -65.82988,47.057077 -13.647,0 -21.14648,-2.123544 -39.77271,-11.266016 -21.00282,-10.309983 -27.50544,-12.346754 -39.42413,-12.348938 -17.84377,-0.0029 -27.92769,5.919233 -33.69597,19.782068 l -1.59484,3.832886 h -10.79784 -10.79931 z"
       stroke-miterlimit="10" />
    <path
       style="fill:#15738d;stroke:#000000;stroke-width:0.59556961;stroke-miterlimit:10"
       inkscape:connector-curvature="0"
       id="path26"
       d="m 239.14236,74.800923 c 5.95863,-12.179755 18.14713,-18.956571 34.09341,-18.956571 11.53728,0 19.41818,2.354715 37.51862,11.209862 8.99371,4.399504 19.80177,9.081217 24.01751,10.404785 14.35434,4.503782 36.57134,2.574949 50.41012,-4.373975 11.54676,-5.795992 21.65038,-16.697392 27.82266,-30.015493 3.7709,-8.13758 7.22019,-19.647156 6.19342,-20.673197 -0.37843,-0.377762 -3.8759,-0.80724 -7.77296,-0.956035 l -7.08674,-0.268317 -3.1153,6.526689 C 396.58221,37.423805 389.88779,42.284916 377.88524,44.646192 363.43245,47.489502 346.509,43.913354 329.6643,34.457993 306.75379,21.597126 288.57167,18.432962 267.99472,23.72797 c -14.90126,3.833605 -28.83775,13.979507 -36.36423,26.471383 -3.61412,5.997992 -9.58366,21.034175 -10.66221,26.85205 l -0.61477,3.322412 h 8.0304 8.0311 z"
       stroke-miterlimit="10" />
    <path
       style="fill:#15738d;stroke:#010202;stroke-width:0.14905655;stroke-miterlimit:10"
       inkscape:connector-curvature="0"
       id="path28"
       d="m 370.50973,208.80519 12.44956,-4.67295 -0.0203,-0.0415 c -1.2769,-2.60922 -1.97331,-5.49848 -1.97331,-8.5992 0,-2.12062 0.22895,-3.82486 0.84956,-5.73911 l 0.10648,-0.33908 -14.16038,-4.44835 -0.2888,-0.0911 c -1.70131,1.57296 -3.95977,2.55232 -6.44502,2.60921 l -0.0204,0.16988 -1.22073,10.43833 h 6.7e-4 c 5.0682,1.64589 9.07537,5.64722 10.72273,10.71398"
       stroke-miterlimit="10" />
    <path
       d="m 419.13613,350.89745 -6.55077,-6.69878 c -11.19601,-11.45053 -22.17032,-17.73146 -37.95179,-21.72038 -12.23517,-3.09636 -30.6142,-2.41525 -42.41621,1.56786 -10.01975,3.38074 -20.00376,9.16725 -27.25531,15.79386 l -5.46637,4.99529 -4.07207,-3.51932 c -13.79064,-11.9216 -32.91714,-16.03597 -50.08052,-10.77524 -26.43346,8.10185 -44.27065,36.80544 -42.06471,67.6858 0.74605,10.42595 2.67049,17.42518 7.5316,27.37492 1.99957,4.09249 3.45877,7.58044 3.24292,7.74816 -0.21728,0.16701 -3.11313,2.22419 -6.43699,4.56796 h -6.8e-4 c -3.32315,2.34305 -6.31303,4.24635 -6.64336,4.22886 -1.12449,-0.0541 -35.86036,-33.44874 -35.86036,-34.47626 0,-0.25883 6.05196,-9.04256 13.45083,-19.51954 7.39667,-10.4777 13.45665,-19.5509 13.45665,-20.16272 0.008,-1.38046 -15.57144,-40.52457 -16.51362,-41.48936 -0.37556,-0.38502 -10.34352,-2.40429 -22.14773,-4.48626 -11.80419,-2.08271 -22.42775,-4.14501 -23.60621,-4.58109 -2.08269,-0.77227 -2.1476,-1.45555 -2.36345,-25.32211 l -0.22388,-24.52868 5.4321,-1.08802 c 2.98769,-0.59869 14.39957,-2.74631 25.36075,-4.77069 10.96048,-2.02582 19.97825,-3.75924 20.03804,-3.85184 1.00489,-1.58319 14.7124,-38.06118 14.7124,-39.15431 0,-0.84372 -6.2102,-10.20644 -13.79795,-20.80593 -7.58845,-10.59949 -13.79793,-19.65519 -13.79793,-20.12335 0,-1.05522 33.97016,-35.06693 35.02464,-35.06693 0.42008,0 10.01027,6.3225 21.30984,14.05318 11.30101,7.72919 21.07135,13.90074 21.71089,13.71187 0.64101,-0.18596 9.27301,-3.80078 19.18337,-8.03256 l 18.01951,-7.69275 5.01863,-25.18282 5.01789,-25.18356 24.20782,-0.27347 24.2071,-0.27349 0.55204,2.31753 c 0.30412,1.27544 2.61068,12.62604 5.12874,25.22366 2.51733,12.59833 4.72183,23.04906 4.89684,23.22626 0.17573,0.17505 8.78442,3.77017 19.13086,7.98955 l 18.81146,7.67159 21.35869,-14.41924 21.35942,-14.41852 17.25962,17.2385 c 9.4947,9.48228 17.2611,17.62205 17.2611,18.09023 0,0.46816 -5.90828,9.90234 -13.12849,20.96345 -7.22239,11.06181 -13.44571,20.67028 -13.83513,21.3521 -0.388,0.68257 1.66267,6.43117 4.55556,12.77555 2.8929,6.34512 6.66889,14.83491 8.39063,18.86688 l 3.1277,7.33032 8.25572,1.50734 c 4.54097,0.82839 15.44018,2.76818 24.22314,4.30979 l 15.96743,2.80174 0.74603,24.96259 c 0.41061,13.73085 0.56736,25.14271 0.34933,25.36002 -0.2188,0.22025 -7.51044,1.58829 -16.20297,3.04312 -8.69254,1.45628 -19.44079,3.43252 -23.88623,4.39293 l -8.0807,1.74581 -2.77695,6.64409 c -1.52922,3.65349 -5.44523,12.75586 -8.70347,20.22618 l -5.92215,13.58428 13.45958,19.81927 c 7.40396,10.90065 13.44498,20.19409 13.42529,20.65495 -0.0212,0.45946 -7.5469,8.6444 -16.72438,18.19089 L 431.122,442.65104 427.40654,440.65 c -2.04558,-1.09966 -3.71773,-2.06298 -3.71773,-2.13664 0,-0.0745 1.60944,-3.61701 3.57547,-7.87213 4.97924,-10.77597 6.87016,-19.70478 6.87016,-32.40958 0,-13.47999 -2.02291,-22.28335 -7.91153,-34.41791 l -4.48262,-9.23873 -0.0643,-0.13932 c 16.71051,-28.36668 16.61061,-73.82963 5.82736,-113.15166 v 0 c 3.90143,-2.19794 6.53545,-6.37939 6.53545,-11.17633 0,-7.08018 -5.73839,-12.81856 -12.8193,-12.81856 -1.54892,0 -3.03364,0.27415 -4.40826,0.77667 l -0.13349,-0.20203 -4.48336,-6.1774 -0.12687,-0.17351 c 4.99382,-3.5689 8.24842,-9.41521 8.24842,-16.02066 0,-10.86786 -8.80849,-19.67487 -19.67561,-19.67487 -7.38427,0 -13.81762,4.06696 -17.18305,10.08246 l -0.17141,-0.0508 -13.14308,-3.94373 -0.41347,-0.124 c 0.58124,-1.25649 0.90571,-2.65663 0.90571,-4.13261 0,-5.43282 -4.40533,-9.83742 -9.83743,-9.83742 -5.43284,0 -9.83745,4.40533 -9.83745,9.83742 0,4.3645 2.66027,8.00341 6.59452,9.29053 l 0.18088,0.0601 -1.33669,10.37343 h 6.7e-4 c -0.58192,-0.0609 -1.17116,-0.0919 -1.76914,-0.0919 -9.22048,0 -16.69447,7.47397 -16.69447,16.69519 0,9.22051 7.47472,16.69448 16.69447,16.69448 9.21978,0 16.69521,-7.47397 16.69521,-16.69448 0,-0.4601 -0.0186,-0.91592 -0.0558,-1.36732 l 13.65207,-5.27896 6.8e-4,6.7e-4 c 3.59004,4.76121 9.29488,7.83786 15.71801,7.83786 2.64788,0 5.17396,-0.52283 7.47982,-1.47159 l 0.0992,0.13713 4.65108,6.38375 0.0727,0.10062 c -2.77767,2.35106 -4.54243,5.86455 -4.54243,9.78931 0,7.08163 5.73911,12.81928 12.81929,12.81928 0.76645,0 1.51756,-0.0669 2.24825,-0.19543 v -6.8e-4 c 11.44104,33.15486 11.2405,78.96494 -4.10416,108.3985 l -0.22829,-0.23192"
       id="path31"
       inkscape:connector-curvature="0"
       style="fill:#34aacd;stroke-width:0.72923917" />
    <path
       d="m 370.28365,219.79483 c 23.49901,31.20341 34.76502,71.46764 26.70109,111.72528"
       id="path33"
       inkscape:connector-curvature="0"
       style="fill:none;stroke-width:0.72923917" />
    <path
       d="m 263.57116,161.92459 c 32.9412,1.721 63.08357,15.25715 86.49214,35.9865"
       id="path35"
       inkscape:connector-curvature="0"
       style="fill:none;stroke-width:0.72923917" />
    <path
       d="m 263.73233,162.11128 c -0.097,-0.12612 -0.14661,-0.19105 -0.14661,-0.19105 32.94119,1.72028 63.08358,15.25715 86.49142,35.98649 v 6.9e-4 c 1.45191,-0.41205 2.98333,-0.63297 4.56649,-0.63297 0.59868,0 1.18793,0.0313 1.76915,0.0925 l 1.33743,-10.37342 -0.18156,-0.0609 c -3.93353,-1.28783 -6.59524,-4.92674 -6.59524,-9.29051 0,-5.43284 4.4046,-9.83742 9.83816,-9.83742 5.43283,0 9.83742,4.40532 9.83742,9.83742 0,1.47526 -0.32451,2.87613 -0.9079,4.13261 l 0.41493,0.12323 13.14308,3.94301 0.17064,0.0499 c 3.3669,-6.01549 9.80096,-10.08174 17.18378,-10.08174 10.86713,0 19.67635,8.80777 19.67635,19.67415 0,6.60692 -3.25461,12.45178 -8.24843,16.02066 l 0.12688,0.17505 4.48409,6.17665 0.13272,0.20204 c 1.37535,-0.5032 2.86007,-0.77736 4.40899,-0.77736 7.08091,0 12.81929,5.73839 12.81929,12.8193 0,4.79766 -2.63547,8.97839 -6.53617,11.17706 10.78326,39.32202 10.88317,84.78499 -5.82662,113.15167 l 0.0643,0.13933 4.48263,9.23874 c 5.88788,12.13599 7.91152,20.93791 7.91152,34.41935 0,12.70407 -1.89238,21.63361 -6.8709,32.40739 -1.96529,4.25731 -3.57472,7.79921 -3.57472,7.87287 0,0.0745 1.67142,1.03625 3.71693,2.1374 l 3.71548,2.00102 16.68863,-17.35587 c 9.1782,-9.54357 16.70323,-17.73073 16.72437,-18.19016 0.0186,-0.45944 -6.02059,-9.75429 -13.42455,-20.65423 l -13.4603,-19.81928 5.92288,-13.58354 c 3.25824,-7.47178 7.17426,-16.57269 8.70201,-20.22763 l 2.77767,-6.64191 8.08143,-1.74725 c 4.4447,-0.95896 15.19297,-2.93665 23.88623,-4.39221 8.69253,-1.45557 15.98274,-2.82508 16.20369,-3.04384 0.21728,-0.21729 0.0609,-11.62993 -0.34932,-25.36003 l -0.74672,-24.96185 -15.96741,-2.80247 c -8.78223,-1.54162 -19.68144,-3.47994 -24.22242,-4.30908 l -8.25498,-1.50734 -3.12917,-7.33032 c -1.72114,-4.03275 -5.49641,-12.52183 -8.38929,-18.86695 -2.89291,-6.34511 -4.94424,-12.0937 -4.55631,-12.77627 0.38946,-0.68188 6.61348,-10.29029 13.83514,-21.35213 7.22019,-11.06109 13.12849,-20.49453 13.12849,-20.96343 0,-0.46817 -7.76712,-8.60794 -17.26109,-18.08951 l -17.26037,-17.2385 -21.35941,14.41852 -21.35869,14.41779 -18.80999,-7.67086 c -10.34718,-4.2201 -18.95585,-7.81525 -19.1316,-7.99101 -0.17572,-0.17647 -2.37951,-10.62792 -4.89683,-23.22555 -2.5188,-12.5976 -4.82539,-23.94893 -5.12948,-25.22364 l -0.55204,-2.31752 -24.20783,0.27349 -24.20782,0.27347 -5.0179,25.18427 -5.01789,25.1821 -16.78781,7.1677"
       id="path38"
       inkscape:connector-curvature="0"
       style="fill:#15738d;stroke-width:0.72923917" />
    <path
       d="m 396.99787,331.51575 c 8.06394,-40.25838 -3.2028,-80.52334 -26.70182,-111.7253 0.67452,-1.81288 1.04355,-3.77382 1.04355,-5.82079 0,-0.46011 -0.0186,-0.91518 -0.0559,-1.36659 l 13.65209,-5.27968 v 6.8e-4 c 3.59223,4.76121 9.29562,7.83859 15.71875,7.83859 2.64787,0 5.17395,-0.52284 7.48053,-1.47088 l 0.0999,0.13635 4.64963,6.38377 0.0737,0.10062 c -2.77769,2.3518 -4.54243,5.86454 -4.54243,9.79002 0,7.08091 5.73836,12.8193 12.81928,12.8193 0.76712,0 1.51828,-0.0669 2.24825,-0.19611 v -6.8e-4 c 11.4403,33.15487 11.24122,78.96567 -4.10343,108.39849 l -0.23041,-0.23048 -6.55002,-6.69951 c -5.08965,-5.20384 -10.13233,-9.34009 -15.60163,-12.67782 z"
       id="path40"
       inkscape:connector-curvature="0"
       style="fill:#15738d;stroke-width:0.72923917" />
    <path
       style="fill:none;stroke:#010202;stroke-width:0.08969644;stroke-miterlimit:10"
       inkscape:connector-curvature="0"
       id="path42"
       d="M 281.27344,484.5692"
       stroke-miterlimit="10" />
    <path
       style="fill:none;stroke:#010202;stroke-width:0.08969644;stroke-miterlimit:10"
       inkscape:connector-curvature="0"
       id="path44"
       d="M 312.35946,483.77215"
       stroke-miterlimit="10" />
    <path
       style="fill:none;stroke:#010202;stroke-width:0.08969644;stroke-miterlimit:10"
       inkscape:connector-curvature="0"
       id="path46"
       d="M 281.27344,483.70359"
       stroke-miterlimit="10" />
    <path
       style="fill:none;stroke:#010202;stroke-width:0.08969644;stroke-miterlimit:10"
       inkscape:connector-curvature="0"
       id="path48"
       d="M 311.86065,495.95408"
       stroke-miterlimit="10" />
    <path
       style="fill:none;stroke:#010202;stroke-width:0.08969644;stroke-miterlimit:10"
       inkscape:connector-curvature="0"
       id="path50"
       d="M 280.7739,495.88554"
       stroke-miterlimit="10" />
    <flowRoot
       xml:space="preserve"
       id="flowRoot87"
       style="font-style:normal;font-weight:normal;font-size:40px;font-family:sans-serif;fill:#15738d;fill-opacity:1;stroke:none"
       transform="matrix(9.1091335,0,0,9.1091335,-2684.0537,-833.03907)"><flowRegion
         id="flowRegion89"
         style="fill:#15738d;fill-opacity:1"><rect
           id="rect91"
           width="787.9032"
           height="260.0769"
           x="358.51422"
           y="112.80777"
           style="fill:#15738d;fill-opacity:1" /></flowRegion><flowPara
         id="flowPara93"
         style="font-style:normal;font-variant:normal;font-weight:normal;font-stretch:normal;font-size:40px;font-family:Geneva;-inkscape-font-specification:'Geneva, Normal';font-variant-ligatures:normal;font-variant-caps:normal;font-variant-numeric:normal;font-feature-settings:normal;text-align:start;writing-mode:lr-tb;text-anchor:start;fill:#15738d;fill-opacity:1">OSHWDem</flowPara></flowRoot>    <flowRoot
       xml:space="preserve"
       id="flowRoot95"
       style="font-style:normal;font-weight:normal;font-size:40px;font-family:sans-serif;fill:#34aacd;fill-opacity:1;stroke:none"
       transform="matrix(2.9759402,0,0,2.9759402,-474.96605,-212.37571)"><flowRegion
         id="flowRegion97"
         style="fill:#34aacd;fill-opacity:1"><rect
           id="rect99"
           width="554.53046"
           height="247.75865"
           x="328.20529"
           y="343.95502"
           style="fill:#34aacd;fill-opacity:1" /></flowRegion><flowPara
         id="flowPara101"
         style="font-style:normal;font-variant:normal;font-weight:normal;font-stretch:normal;font-size:40px;font-family:Geneva;-inkscape-font-specification:'Geneva, Normal';font-variant-ligatures:normal;font-variant-caps:normal;font-variant-numeric:normal;font-feature-settings:normal;text-align:start;writing-mode:lr-tb;text-anchor:start;fill:#34aacd;fill-opacity:1">Feria de tecnologías abiertas</flowPara></flowRoot>    <flowRoot
       xml:space="preserve"
       id="flowRoot103"
       style="font-style:normal;font-weight:normal;font-size:40px;font-family:sans-serif;fill:#15738d;fill-opacity:1;stroke:none"
       transform="matrix(3.6711134,0,0,3.6711134,-612.13473,-541.37134)"><flowRegion
         id="flowRegion105"
         style="fill:#15738d;fill-opacity:1"><rect
           id="rect107"
           width="525.35333"
           height="84.919281"
           x="364.67444"
           y="312.91388"
           style="fill:#15738d;fill-opacity:1" /></flowRegion><flowPara
         id="flowPara109"
         style="font-style:normal;font-variant:normal;font-weight:normal;font-stretch:normal;font-size:40px;font-family:Geneva;-inkscape-font-specification:'Geneva, Normal';font-variant-ligatures:normal;font-variant-caps:normal;font-variant-numeric:normal;font-feature-settings:normal;text-align:start;writing-mode:lr-tb;text-anchor:start;fill:#15738d;fill-opacity:1">CORUÑA</flowPara></flowRoot>    <flowRoot
       xml:space="preserve"
       id="flowRoot111"
       style="font-style:normal;font-variant:normal;font-weight:bold;font-stretch:normal;font-size:39.99980164px;font-family:sans-serif;-inkscape-font-specification:'sans-serif, Bold';font-variant-ligatures:normal;font-variant-caps:normal;font-variant-numeric:normal;font-feature-settings:normal;text-align:start;writing-mode:lr-tb;text-anchor:start;fill:#15738d;fill-opacity:1;stroke:none"
       transform="matrix(1.7481326,0,0,2.0394347,58.467229,-42.483413)"><flowRegion
         id="flowRegion113"
         style="font-style:normal;font-variant:normal;font-weight:bold;font-stretch:normal;font-size:39.99980164px;font-family:sans-serif;-inkscape-font-specification:'sans-serif, Bold';font-variant-ligatures:normal;font-variant-caps:normal;font-variant-numeric:normal;font-feature-settings:normal;text-align:start;writing-mode:lr-tb;text-anchor:start;fill:#15738d;fill-opacity:1"><rect
           id="rect115"
           width="1292.1075"
           height="95.254967"
           x="311.1091"
           y="82.801491"
           style="font-style:normal;font-variant:normal;font-weight:bold;font-stretch:normal;font-size:39.99980164px;font-family:sans-serif;-inkscape-font-specification:'sans-serif, Bold';font-variant-ligatures:normal;font-variant-caps:normal;font-variant-numeric:normal;font-feature-settings:normal;text-align:start;writing-mode:lr-tb;text-anchor:start;fill:#15738d;fill-opacity:1" /></flowRegion><flowPara
         id="flowPara117"
         style="font-style:normal;font-variant:normal;font-weight:bold;font-stretch:normal;font-size:39.99980164px;font-family:sans-serif;-inkscape-font-specification:'sans-serif, Bold';font-variant-ligatures:normal;font-variant-caps:normal;font-variant-numeric:normal;font-feature-settings:normal;text-align:start;writing-mode:lr-tb;text-anchor:start;fill:#15738d;fill-opacity:1">OPEN  SOURCE  HARDWARE  DEMONSTRATION</flowPara><flowPara
         style="font-style:normal;font-variant:normal;font-weight:bold;font-stretch:normal;font-size:39.99980164px;font-family:sans-serif;-inkscape-font-specification:'sans-serif, Bold';font-variant-ligatures:normal;font-variant-caps:normal;font-variant-numeric:normal;font-feature-settings:normal;text-align:start;writing-mode:lr-tb;text-anchor:start;fill:#15738d;fill-opacity:1"
         id="flowPara119" /></flowRoot>    <flowRoot
       xml:space="preserve"
       id="flowRoot853"
       style="font-style:normal;font-variant:normal;font-weight:normal;font-stretch:normal;font-size:12px;line-height:25px;font-family:'DejaVu Sans';-inkscape-font-specification:'DejaVu Sans, Normal';font-variant-ligatures:normal;font-variant-caps:normal;font-variant-numeric:normal;font-feature-settings:normal;text-align:center;letter-spacing:0px;word-spacing:0px;writing-mode:lr-tb;text-anchor:middle;fill:#34aacd;fill-opacity:1;stroke:none;stroke-width:1px;stroke-linecap:butt;stroke-linejoin:miter;stroke-opacity:1"
       transform="matrix(7.175668,0,0,7.175668,-4620.0456,-1571.6652)"><flowRegion
         id="flowRegion855"
         style="fill:#34aacd;fill-opacity:1"><rect
           id="rect857"
           width="345.67343"
           height="70.258827"
           x="772.84711"
           y="245.00958"
           style="fill:#34aacd;fill-opacity:1" /></flowRegion><flowPara
         id="flowPara859"
         style="font-style:normal;font-variant:normal;font-weight:normal;font-stretch:normal;font-size:12px;font-family:'Averia Serif';-inkscape-font-specification:'Averia Serif, Normal';font-variant-ligatures:normal;font-variant-caps:normal;font-variant-numeric:normal;font-feature-settings:normal;text-align:center;writing-mode:lr-tb;text-anchor:middle;fill:#34aacd;fill-opacity:1">By BricoLabs</flowPara></flowRoot>  </g>
</svg>
