<?xml version="1.0" encoding="UTF-8" standalone="no"?>
<!-- Created with Inkscape (http://www.inkscape.org/) -->

<svg
   xmlns:dc="http://purl.org/dc/elements/1.1/"
   xmlns:cc="http://creativecommons.org/ns#"
   xmlns:rdf="http://www.w3.org/1999/02/22-rdf-syntax-ns#"
   xmlns:svg="http://www.w3.org/2000/svg"
   xmlns="http://www.w3.org/2000/svg"
   xmlns:sodipodi="http://sodipodi.sourceforge.net/DTD/sodipodi-0.dtd"
   xmlns:inkscape="http://www.inkscape.org/namespaces/inkscape"
   width="143.81062mm"
   height="33.976849mm"
   viewBox="0 0 143.81062 33.976849"
   version="1.1"
   id="svg8"
   inkscape:version="0.92.3 (2405546, 2018-03-11)"
   sodipodi:docname="Startups_R.svg"
   inkscape:export-filename="/home/4m1g0/proyectos/oshwdem/logos/Startups_R.svg.png"
   inkscape:export-xdpi="159"
   inkscape:export-ydpi="159">
  <defs
     id="defs2" />
  <sodipodi:namedview
     id="base"
     pagecolor="#ffffff"
     bordercolor="#666666"
     borderopacity="1.0"
     inkscape:pageopacity="0.0"
     inkscape:pageshadow="2"
     inkscape:zoom="0.56221141"
     inkscape:cx="783.0099"
     inkscape:cy="-165.81851"
     inkscape:document-units="mm"
     inkscape:current-layer="layer1"
     showgrid="false"
     fit-margin-top="5"
     fit-margin-left="5"
     fit-margin-right="5"
     fit-margin-bottom="5"
     inkscape:window-width="1366"
     inkscape:window-height="741"
     inkscape:window-x="0"
     inkscape:window-y="27"
     inkscape:window-maximized="1" />
  <metadata
     id="metadata5">
    <rdf:RDF>
      <cc:Work
         rdf:about="">
        <dc:format>image/svg+xml</dc:format>
        <dc:type
           rdf:resource="http://purl.org/dc/dcmitype/StillImage" />
        <dc:title></dc:title>
      </cc:Work>
    </rdf:RDF>
  </metadata>
  <g
     inkscape:label="Capa 1"
     inkscape:groupmode="layer"
     id="layer1"
     transform="translate(393.47167,-307.37727)">
    <g
       aria-label="startups R"
       transform="matrix(2.186073,0,0,2.186073,-1100.3167,-652.23002)"
       style="font-style:normal;font-variant:normal;font-weight:normal;font-stretch:normal;font-size:12px;line-height:25px;font-family:'DejaVu Sans';-inkscape-font-specification:'DejaVu Sans, Normal';font-variant-ligatures:normal;font-variant-caps:normal;font-variant-numeric:normal;font-feature-settings:normal;text-align:center;letter-spacing:0px;word-spacing:0px;writing-mode:lr-tb;text-anchor:middle;fill:#000000;fill-opacity:1;stroke:none;stroke-width:1px;stroke-linecap:butt;stroke-linejoin:miter;stroke-opacity:1"
       id="flowRoot10">
      <path
         d="m 330.04402,443.85518 q -0.648,-0.24 -1.092,-0.3 -0.432,-0.06 -0.744,-0.06 -0.504,0 -0.912,0.096 -0.396,0.084 -0.708,0.228 -0.3,0.144 -0.516,0.324 -0.216,0.18 -0.348,0.36 -0.228,0.312 -0.276,0.624 -0.036,0.3 -0.036,0.432 0,0.324 0.096,0.576 0.096,0.24 0.24,0.408 0.144,0.168 0.288,0.276 0.156,0.108 0.252,0.168 0.216,0.132 0.444,0.24 0.228,0.096 0.468,0.192 0.432,0.192 0.672,0.336 0.252,0.144 0.252,0.432 0,0.324 -0.252,0.492 -0.252,0.156 -0.528,0.156 -0.18,0 -0.336,-0.036 -0.156,-0.048 -0.216,-0.06 -0.252,-0.084 -0.468,-0.204 -0.204,-0.132 -0.372,-0.264 -0.156,-0.132 -0.276,-0.24 -0.108,-0.108 -0.156,-0.168 v 1.764 q 0.108,0.048 0.216,0.096 0.108,0.048 0.216,0.084 0.528,0.18 0.984,0.216 0.468,0.036 0.66,0.036 0.144,0 0.348,-0.012 0.216,-0.012 0.48,-0.072 0.264,-0.048 0.552,-0.168 0.288,-0.132 0.588,-0.36 0.264,-0.192 0.42,-0.408 0.156,-0.216 0.24,-0.408 0.084,-0.204 0.108,-0.372 0.024,-0.18 0.024,-0.312 0,-0.204 -0.036,-0.348 -0.036,-0.156 -0.06,-0.216 -0.096,-0.288 -0.276,-0.48 -0.18,-0.204 -0.372,-0.336 -0.192,-0.132 -0.36,-0.204 -0.168,-0.084 -0.24,-0.12 l -0.54,-0.252 q -0.168,-0.06 -0.42,-0.156 -0.252,-0.096 -0.372,-0.264 -0.06,-0.084 -0.072,-0.144 -0.012,-0.072 -0.012,-0.12 0,-0.084 0.036,-0.192 0.036,-0.108 0.12,-0.204 0.096,-0.096 0.24,-0.156 0.156,-0.072 0.372,-0.072 0.264,0 0.504,0.072 0.24,0.072 0.432,0.168 0.204,0.084 0.336,0.18 0.144,0.096 0.204,0.144 0.06,0.048 0.096,0.096 0.048,0.048 0.096,0.108 z"
         style="font-style:normal;font-variant:normal;font-weight:normal;font-stretch:normal;font-size:12px;font-family:'Gerstner BQ';-inkscape-font-specification:'Gerstner BQ, Normal';font-variant-ligatures:normal;font-variant-caps:normal;font-variant-numeric:normal;font-feature-settings:normal;text-align:center;writing-mode:lr-tb;text-anchor:middle"
         id="path77"
         inkscape:connector-curvature="0" />
      <path
         d="m 335.25184,443.67518 h -1.152 v -1.632 q 0,-0.108 0,-0.24 0,-0.144 -0.036,-0.264 -0.036,-0.12 -0.132,-0.204 -0.084,-0.084 -0.252,-0.084 -0.192,0 -0.288,0.12 -0.096,0.12 -0.144,0.288 -0.132,0.444 -0.3,0.804 -0.156,0.36 -0.54,0.66 -0.348,0.264 -0.708,0.36 -0.36,0.096 -0.768,0.168 l -0.228,0.012 v 1.308 h 1.056 v 4.932 h 2.34 v -4.932 h 1.152 z"
         style="font-style:normal;font-variant:normal;font-weight:normal;font-stretch:normal;font-size:12px;font-family:'Gerstner BQ';-inkscape-font-specification:'Gerstner BQ, Normal';font-variant-ligatures:normal;font-variant-caps:normal;font-variant-numeric:normal;font-feature-settings:normal;text-align:center;writing-mode:lr-tb;text-anchor:middle"
         id="path79"
         inkscape:connector-curvature="0" />
      <path
         d="m 342.57765,443.45918 -1.284,0.528 -0.552,-0.252 q -0.192,-0.06 -0.336,-0.096 -0.144,-0.048 -0.288,-0.072 -0.144,-0.036 -0.3,-0.048 -0.156,-0.012 -0.36,-0.012 -0.72,0 -1.284,0.156 -0.552,0.156 -0.96,0.396 -0.396,0.24 -0.672,0.54 -0.264,0.288 -0.42,0.564 -0.216,0.372 -0.336,0.816 -0.108,0.432 -0.108,0.864 0,0.54 0.168,1.032 0.168,0.492 0.516,0.912 0.276,0.324 0.588,0.54 0.324,0.204 0.66,0.324 0.348,0.108 0.72,0.168 0.384,0.048 0.792,0.072 0.252,0.012 0.504,0.012 0.264,0 0.516,0 h 2.436 z m -2.352,5.172 q -0.084,0.048 -0.096,0.048 0,0 -0.06,0.024 -0.036,0.012 -0.228,0.06 -0.18,0.036 -0.36,0.036 -0.504,0 -0.816,-0.312 -0.3,-0.312 -0.456,-0.768 -0.096,-0.3 -0.12,-0.564 -0.024,-0.276 -0.024,-0.372 0,-0.036 0.012,-0.264 0.012,-0.24 0.084,-0.54 0.072,-0.312 0.228,-0.624 0.156,-0.312 0.444,-0.504 0.228,-0.18 0.54,-0.18 0.156,-0.012 0.252,0.036 0.096,0.036 0.156,0.06 0.156,0.096 0.24,0.24 0.096,0.132 0.132,0.3 0.048,0.156 0.06,0.336 0.012,0.168 0.012,0.324 z"
         style="font-style:normal;font-variant:normal;font-weight:normal;font-stretch:normal;font-size:12px;font-family:'Gerstner BQ';-inkscape-font-specification:'Gerstner BQ, Normal';font-variant-ligatures:normal;font-variant-caps:normal;font-variant-numeric:normal;font-feature-settings:normal;text-align:center;writing-mode:lr-tb;text-anchor:middle"
         id="path81"
         inkscape:connector-curvature="0" />
      <path
         d="m 343.71146,443.67518 v 6.228 h 2.352 v -5.1 q 0.192,-0.012 0.276,0 0.096,0 0.192,0.024 0,0.228 0,0.324 0.012,0.096 0.048,0.216 0.072,0.228 0.252,0.408 0.12,0.108 0.324,0.216 0.216,0.108 0.588,0.108 0.06,0 0.204,-0.012 0.144,-0.012 0.312,-0.072 0.168,-0.06 0.336,-0.18 0.168,-0.12 0.276,-0.336 0.048,-0.084 0.096,-0.216 0.048,-0.132 0.048,-0.348 0,-0.168 -0.036,-0.3 -0.036,-0.132 -0.06,-0.192 -0.072,-0.18 -0.168,-0.276 -0.096,-0.096 -0.156,-0.144 -0.324,-0.264 -0.768,-0.312 -0.432,-0.048 -0.816,-0.036 z"
         style="font-style:normal;font-variant:normal;font-weight:normal;font-stretch:normal;font-size:12px;font-family:'Gerstner BQ';-inkscape-font-specification:'Gerstner BQ, Normal';font-variant-ligatures:normal;font-variant-caps:normal;font-variant-numeric:normal;font-feature-settings:normal;text-align:center;writing-mode:lr-tb;text-anchor:middle"
         id="path83"
         inkscape:connector-curvature="0" />
      <path
         d="m 353.76746,443.67518 h -1.152 v -1.632 q 0,-0.108 0,-0.24 0,-0.144 -0.036,-0.264 -0.036,-0.12 -0.132,-0.204 -0.084,-0.084 -0.252,-0.084 -0.192,0 -0.288,0.12 -0.096,0.12 -0.144,0.288 -0.132,0.444 -0.3,0.804 -0.156,0.36 -0.54,0.66 -0.348,0.264 -0.708,0.36 -0.36,0.096 -0.768,0.168 l -0.228,0.012 v 1.308 h 1.056 v 4.932 h 2.34 v -4.932 h 1.152 z"
         style="font-style:normal;font-variant:normal;font-weight:normal;font-stretch:normal;font-size:12px;font-family:'Gerstner BQ';-inkscape-font-specification:'Gerstner BQ, Normal';font-variant-ligatures:normal;font-variant-caps:normal;font-variant-numeric:normal;font-feature-settings:normal;text-align:center;writing-mode:lr-tb;text-anchor:middle"
         id="path85"
         inkscape:connector-curvature="0" />
      <path
         d="m 360.84127,449.90318 v -6.228 h -2.352 v 4.848 q -0.084,0.036 -0.276,0.12 -0.192,0.084 -0.456,0.084 -0.192,0 -0.336,-0.048 -0.132,-0.06 -0.24,-0.132 -0.096,-0.084 -0.156,-0.168 -0.06,-0.084 -0.084,-0.156 -0.048,-0.108 -0.072,-0.24 -0.024,-0.144 -0.036,-0.264 -0.012,-0.132 -0.012,-0.228 0,-0.096 0,-0.108 v -3.708 h -2.352 v 3.42 q 0.012,0.468 0.072,0.912 0.06,0.444 0.348,0.828 0.276,0.372 0.672,0.576 0.396,0.204 0.816,0.3 0.372,0.096 0.792,0.132 0.432,0.036 0.804,0.06 0.384,0.012 0.66,0 0.276,0 0.348,0 z"
         style="font-style:normal;font-variant:normal;font-weight:normal;font-stretch:normal;font-size:12px;font-family:'Gerstner BQ';-inkscape-font-specification:'Gerstner BQ, Normal';font-variant-ligatures:normal;font-variant-caps:normal;font-variant-numeric:normal;font-feature-settings:normal;text-align:center;writing-mode:lr-tb;text-anchor:middle"
         id="path87"
         inkscape:connector-curvature="0" />
      <path
         d="m 361.96927,452.21918 h 2.352 v -2.22 q 0.228,0.024 0.444,0.036 0.216,0.024 0.444,0.024 0.516,0 1.02,-0.12 0.504,-0.12 0.948,-0.36 0.444,-0.24 0.804,-0.6 0.36,-0.372 0.588,-0.864 0.072,-0.168 0.18,-0.504 0.108,-0.348 0.108,-0.816 0,-0.384 -0.084,-0.696 -0.072,-0.324 -0.18,-0.576 -0.108,-0.252 -0.24,-0.432 -0.12,-0.18 -0.216,-0.288 -0.3,-0.336 -0.636,-0.552 -0.336,-0.216 -0.72,-0.336 -0.372,-0.132 -0.78,-0.18 -0.396,-0.048 -0.828,-0.06 -0.468,-0.012 -0.948,0 h -2.256 z m 2.352,-7.296 q 0.084,-0.036 0.264,-0.096 0.192,-0.072 0.468,-0.072 0.084,0 0.204,0.012 0.12,0.012 0.252,0.072 0.132,0.048 0.276,0.156 0.144,0.096 0.276,0.276 0.156,0.216 0.24,0.468 0.084,0.24 0.12,0.468 0.036,0.216 0.036,0.384 0.012,0.168 0.012,0.216 0,0.036 -0.012,0.276 -0.012,0.228 -0.084,0.54 -0.072,0.3 -0.228,0.612 -0.156,0.3 -0.444,0.492 -0.24,0.168 -0.528,0.168 -0.204,0 -0.372,-0.084 -0.168,-0.084 -0.264,-0.216 -0.084,-0.144 -0.132,-0.3 -0.048,-0.168 -0.072,-0.348 -0.012,-0.18 -0.012,-0.336 z"
         style="font-style:normal;font-variant:normal;font-weight:normal;font-stretch:normal;font-size:12px;font-family:'Gerstner BQ';-inkscape-font-specification:'Gerstner BQ, Normal';font-variant-ligatures:normal;font-variant-caps:normal;font-variant-numeric:normal;font-feature-settings:normal;text-align:center;writing-mode:lr-tb;text-anchor:middle"
         id="path89"
         inkscape:connector-curvature="0" />
      <path
         d="m 374.08309,443.85518 q -0.648,-0.24 -1.092,-0.3 -0.432,-0.06 -0.744,-0.06 -0.504,0 -0.912,0.096 -0.396,0.084 -0.708,0.228 -0.3,0.144 -0.516,0.324 -0.216,0.18 -0.348,0.36 -0.228,0.312 -0.276,0.624 -0.036,0.3 -0.036,0.432 0,0.324 0.096,0.576 0.096,0.24 0.24,0.408 0.144,0.168 0.288,0.276 0.156,0.108 0.252,0.168 0.216,0.132 0.444,0.24 0.228,0.096 0.468,0.192 0.432,0.192 0.672,0.336 0.252,0.144 0.252,0.432 0,0.324 -0.252,0.492 -0.252,0.156 -0.528,0.156 -0.18,0 -0.336,-0.036 -0.156,-0.048 -0.216,-0.06 -0.252,-0.084 -0.468,-0.204 -0.204,-0.132 -0.372,-0.264 -0.156,-0.132 -0.276,-0.24 -0.108,-0.108 -0.156,-0.168 v 1.764 q 0.108,0.048 0.216,0.096 0.108,0.048 0.216,0.084 0.528,0.18 0.984,0.216 0.468,0.036 0.66,0.036 0.144,0 0.348,-0.012 0.216,-0.012 0.48,-0.072 0.264,-0.048 0.552,-0.168 0.288,-0.132 0.588,-0.36 0.264,-0.192 0.42,-0.408 0.156,-0.216 0.24,-0.408 0.084,-0.204 0.108,-0.372 0.024,-0.18 0.024,-0.312 0,-0.204 -0.036,-0.348 -0.036,-0.156 -0.06,-0.216 -0.096,-0.288 -0.276,-0.48 -0.18,-0.204 -0.372,-0.336 -0.192,-0.132 -0.36,-0.204 -0.168,-0.084 -0.24,-0.12 l -0.54,-0.252 q -0.168,-0.06 -0.42,-0.156 -0.252,-0.096 -0.372,-0.264 -0.06,-0.084 -0.072,-0.144 -0.012,-0.072 -0.012,-0.12 0,-0.084 0.036,-0.192 0.036,-0.108 0.12,-0.204 0.096,-0.096 0.24,-0.156 0.156,-0.072 0.372,-0.072 0.264,0 0.504,0.072 0.24,0.072 0.432,0.168 0.204,0.084 0.336,0.18 0.144,0.096 0.204,0.144 0.06,0.048 0.096,0.096 0.048,0.048 0.096,0.108 z"
         style="font-style:normal;font-variant:normal;font-weight:normal;font-stretch:normal;font-size:12px;font-family:'Gerstner BQ';-inkscape-font-specification:'Gerstner BQ, Normal';font-variant-ligatures:normal;font-variant-caps:normal;font-variant-numeric:normal;font-feature-settings:normal;text-align:center;writing-mode:lr-tb;text-anchor:middle"
         id="path91"
         inkscape:connector-curvature="0" />
      <path
         d="m 378.85852,441.43118 v 8.472 h 2.352 v -7.26 q 0.312,-0.144 0.528,-0.18 0.228,-0.048 0.396,-0.048 0.492,0 0.912,0.252 0.42,0.252 0.624,0.72 0.024,0.084 0.072,0.24 0.048,0.144 0.048,0.36 0,0.348 -0.132,0.624 -0.132,0.264 -0.36,0.516 -0.084,0.084 -0.192,0.192 -0.108,0.096 -0.216,0.216 -0.108,0.108 -0.204,0.216 -0.084,0.108 -0.132,0.216 -0.072,0.168 -0.072,0.36 0,0.216 0.072,0.42 0.084,0.192 0.252,0.564 l 0.744,1.62 q 0.12,0.228 0.252,0.456 0.144,0.216 0.372,0.348 0.168,0.096 0.384,0.132 0.228,0.024 0.612,0.036 h 1.452 l -1.02,-2.172 q -0.084,-0.168 -0.216,-0.372 -0.12,-0.204 -0.468,-0.432 -0.204,-0.12 -0.276,-0.192 -0.072,-0.084 -0.072,-0.228 0,-0.156 0.084,-0.276 0.096,-0.132 0.192,-0.24 0.204,-0.204 0.42,-0.396 0.228,-0.204 0.396,-0.444 0.288,-0.384 0.348,-0.72 0.072,-0.348 0.072,-0.54 -0.012,-0.552 -0.204,-0.9 -0.18,-0.36 -0.312,-0.528 -0.3,-0.372 -0.672,-0.576 -0.36,-0.204 -0.708,-0.3 -0.348,-0.096 -0.636,-0.12 -0.276,-0.024 -0.408,-0.024 -0.216,-0.012 -0.432,-0.012 -0.216,0 -0.444,0 z"
         style="font-style:normal;font-variant:normal;font-weight:normal;font-stretch:normal;font-size:12px;font-family:'Gerstner BQ';-inkscape-font-specification:'Gerstner BQ, Normal';font-variant-ligatures:normal;font-variant-caps:normal;font-variant-numeric:normal;font-feature-settings:normal;text-align:center;writing-mode:lr-tb;text-anchor:middle"
         id="path93"
         inkscape:connector-curvature="0" />
    </g>
  </g>
</svg>
